-------------------------------------------------------------------------------
Test set: com.epam.news.dao.impl.TagDAOTest
-------------------------------------------------------------------------------
Tests run: 4, Failures: 0, Errors: 0, Skipped: 0, Time elapsed: 9.06 sec
